<svg width="23" height="23" viewBox="0 0 23 23" fill="none" xmlns="http://www.w3.org/2000/svg">
<circle cx="11.0069" cy="11.1382" r="11.0069" fill="#0DD795"/>
<g clip-path="url(#clip0)">
<path d="M9.59985 15.6235C9.48523 15.7388 9.32885 15.8032 9.16641 15.8032C9.00397 15.8032 8.84759 15.7388 8.73297 15.6235L5.27138 12.1614C4.91214 11.8022 4.91214 11.2196 5.27138 10.8611L5.70482 10.4275C6.06417 10.0683 6.64602 10.0683 7.00526 10.4275L9.16641 12.5888L15.0061 6.74892C15.3655 6.38968 15.9479 6.38968 16.3066 6.74892L16.74 7.18247C17.0993 7.54171 17.0993 8.12413 16.74 8.4828L9.59985 15.6235Z" fill="white"/>
</g>
<defs>
<clipPath id="clip0">
<rect width="12.0075" height="12.0075" fill="white" transform="translate(5.00195 5.13428)"/>
</clipPath>
</defs>
</svg>
